%YAML 1.1
%TAG !u! tag:unity3d.com,2011:
--- !u!114 &11400000
MonoBehaviour:
  m_ObjectHideFlags: 0
  m_CorrespondingSourceObject: {fileID: 0}
  m_PrefabInstance: {fileID: 0}
  m_PrefabAsset: {fileID: 0}
  m_GameObject: {fileID: 0}
  m_Enabled: 1
  m_EditorHideFlags: 0
  m_Script: {fileID: 11500000, guid: 33d219a83ae454bdc87692e8027ea3e1, type: 3}
  m_Name: 01_07
  m_EditorClassIdentifier: 
  Question: DOG?
  LeftAnswer: {fileID: 21300000, guid: c566c7d9d93e54a709f45827a97973a1, type: 3}
  RightAnswer: {fileID: 21300000, guid: 1115a80123f994fbc8c94db7de42bb61, type: 3}
  side: 0
