%YAML 1.1
%TAG !u! tag:unity3d.com,2011:
--- !u!114 &11400000
MonoBehaviour:
  m_ObjectHideFlags: 0
  m_CorrespondingSourceObject: {fileID: 0}
  m_PrefabInstance: {fileID: 0}
  m_PrefabAsset: {fileID: 0}
  m_GameObject: {fileID: 0}
  m_Enabled: 1
  m_EditorHideFlags: 0
  m_Script: {fileID: 11500000, guid: 69a97fa29b70145b2908afb4087bf8bd, type: 3}
  m_Name: Camera
  m_EditorClassIdentifier: 
  Idle:
    ObjectOffset: {x: 0, y: 0.4, z: 6}
    CameraRotation: {x: 20, y: 0, z: 0}
    CameraDistance: 8.5
    ScreenX: 0.36
  Run:
    ObjectOffset: {x: 0, y: 2, z: 0.5}
    CameraRotation: {x: 20, y: 0, z: 0}
    CameraDistance: 10
    ScreenX: 0.7
