%YAML 1.1
%TAG !u! tag:unity3d.com,2011:
--- !u!114 &11400000
MonoBehaviour:
  m_ObjectHideFlags: 0
  m_CorrespondingSourceObject: {fileID: 0}
  m_PrefabInstance: {fileID: 0}
  m_PrefabAsset: {fileID: 0}
  m_GameObject: {fileID: 0}
  m_Enabled: 1
  m_EditorHideFlags: 0
  m_Script: {fileID: 11500000, guid: 2c3f478ef69fbe04fa9ed3664a8a443e, type: 3}
  m_Name: New Dialogue Tree
  m_EditorClassIdentifier: 
  _serializedGraph: '{"version":2.92,"type":"NodeCanvas.DialogueTrees.DialogueTree","nodes":[{"statement":{"_text":"What
    are you doing?"},"_actorName":"Enemy","_actorParameterID":"acdf8d7e-9bd7-47f2-b376-8b418405a044","_position":{"x":402.0,"y":138.0},"$type":"NodeCanvas.DialogueTrees.StatementNode","$id":"2"},{"availableChoices":[{"statement":{"_text":"Run"}},{"statement":{"_text":"Sleep"}}],"_position":{"x":420.0,"y":244.0},"$type":"NodeCanvas.DialogueTrees.MultipleChoiceNode","$id":"4"},{"statement":{"_text":"This
    is a dialogue text"},"_position":{"x":225.0,"y":431.0},"$type":"NodeCanvas.DialogueTrees.StatementNode","$id":"10"},{"statement":{"_text":"This
    is a dialogue text"},"_position":{"x":540.0,"y":432.0},"$type":"NodeCanvas.DialogueTrees.StatementNode","$id":"12"}],"connections":[{"_sourceNode":{"$ref":"2"},"_targetNode":{"$ref":"4"},"$type":"NodeCanvas.DialogueTrees.DTConnection"},{"_sourceNode":{"$ref":"4"},"_targetNode":{"$ref":"10"},"$type":"NodeCanvas.DialogueTrees.DTConnection"},{"_sourceNode":{"$ref":"4"},"_targetNode":{"$ref":"12"},"$type":"NodeCanvas.DialogueTrees.DTConnection"}],"localBlackboard":{"_name":"Local
    Blackboard","_variables":{}},"derivedData":{"actorParameters":[{"_keyName":"Boy","_id":"100f1abd-1449-43df-86d7-bb24838234d6","_actorObject":1},{"_keyName":"Enemy","_id":"acdf8d7e-9bd7-47f2-b376-8b418405a044","_actorObject":2}],"$type":"NodeCanvas.DialogueTrees.DialogueTree+DerivedSerializationData"}}'
  _objectReferences:
  - {fileID: 0}
  - {fileID: 0}
  - {fileID: 0}
  _deserializationFailed: 0
  _actorParameters:
  - _keyName: Boy
    _id: 100f1abd-1449-43df-86d7-bb24838234d6
    _actorObject: {fileID: 0}
  - _keyName: Enemy
    _id: acdf8d7e-9bd7-47f2-b376-8b418405a044
    _actorObject: {fileID: 0}
