%YAML 1.1
%TAG !u! tag:unity3d.com,2011:
--- !u!29 &1
OcclusionCullingSettings:
  m_ObjectHideFlags: 0
  serializedVersion: 2
  m_OcclusionBakeSettings:
    smallestOccluder: 5
    smallestHole: 0.25
    backfaceThreshold: 100
  m_SceneGUID: 00000000000000000000000000000000
  m_OcclusionCullingData: {fileID: 0}
--- !u!104 &2
RenderSettings:
  m_ObjectHideFlags: 0
  serializedVersion: 9
  m_Fog: 0
  m_FogColor: {r: 0.5, g: 0.5, b: 0.5, a: 1}
  m_FogMode: 3
  m_FogDensity: 0.01
  m_LinearFogStart: 0
  m_LinearFogEnd: 300
  m_AmbientSkyColor: {r: 0.212, g: 0.227, b: 0.259, a: 1}
  m_AmbientEquatorColor: {r: 0.114, g: 0.125, b: 0.133, a: 1}
  m_AmbientGroundColor: {r: 0.047, g: 0.043, b: 0.035, a: 1}
  m_AmbientIntensity: 1
  m_AmbientMode: 0
  m_SubtractiveShadowColor: {r: 0.42, g: 0.478, b: 0.627, a: 1}
  m_SkyboxMaterial: {fileID: 2100000, guid: 2c308a3b06c530748acc49e5e317ee58, type: 2}
  m_HaloStrength: 0.5
  m_FlareStrength: 1
  m_FlareFadeSpeed: 3
  m_HaloTexture: {fileID: 0}
  m_SpotCookie: {fileID: 10001, guid: 0000000000000000e000000000000000, type: 0}
  m_DefaultReflectionMode: 0
  m_DefaultReflectionResolution: 128
  m_ReflectionBounces: 1
  m_ReflectionIntensity: 1
  m_CustomReflection: {fileID: 0}
  m_Sun: {fileID: 0}
  m_IndirectSpecularColor: {r: 0, g: 0, b: 0, a: 1}
  m_UseRadianceAmbientProbe: 0
--- !u!157 &4
LightmapSettings:
  m_ObjectHideFlags: 0
  serializedVersion: 12
  m_GIWorkflowMode: 0
  m_GISettings:
    serializedVersion: 2
    m_BounceScale: 1
    m_IndirectOutputScale: 1
    m_AlbedoBoost: 1
    m_EnvironmentLightingMode: 0
    m_EnableBakedLightmaps: 1
    m_EnableRealtimeLightmaps: 1
  m_LightmapEditorSettings:
    serializedVersion: 12
    m_Resolution: 2
    m_BakeResolution: 40
    m_AtlasSize: 1024
    m_AO: 0
    m_AOMaxDistance: 1
    m_CompAOExponent: 0
    m_CompAOExponentDirect: 0
    m_ExtractAmbientOcclusion: 0
    m_Padding: 2
    m_LightmapParameters: {fileID: 0}
    m_LightmapsBakeMode: 1
    m_TextureCompression: 1
    m_FinalGather: 0
    m_FinalGatherFiltering: 1
    m_FinalGatherRayCount: 1024
    m_ReflectionCompression: 2
    m_MixedBakeMode: 1
    m_BakeBackend: 0
    m_PVRSampling: 1
    m_PVRDirectSampleCount: 32
    m_PVRSampleCount: 512
    m_PVRBounces: 2
    m_PVREnvironmentSampleCount: 512
    m_PVREnvironmentReferencePointCount: 2048
    m_PVRFilteringMode: 0
    m_PVRDenoiserTypeDirect: 0
    m_PVRDenoiserTypeIndirect: 0
    m_PVRDenoiserTypeAO: 0
    m_PVRFilterTypeDirect: 0
    m_PVRFilterTypeIndirect: 0
    m_PVRFilterTypeAO: 0
    m_PVREnvironmentMIS: 0
    m_PVRCulling: 1
    m_PVRFilteringGaussRadiusDirect: 1
    m_PVRFilteringGaussRadiusIndirect: 5
    m_PVRFilteringGaussRadiusAO: 2
    m_PVRFilteringAtrousPositionSigmaDirect: 0.5
    m_PVRFilteringAtrousPositionSigmaIndirect: 2
    m_PVRFilteringAtrousPositionSigmaAO: 1
    m_ExportTrainingData: 0
    m_TrainingDataDestination: TrainingData
    m_LightProbeSampleCountMultiplier: 4
  m_LightingDataAsset: {fileID: 0}
  m_LightingSettings: {fileID: 4890085278179872738, guid: 3a0c6db2e66194158b3d4da8ad2a7ccf, type: 2}
--- !u!196 &5
NavMeshSettings:
  serializedVersion: 2
  m_ObjectHideFlags: 0
  m_BuildSettings:
    serializedVersion: 2
    agentTypeID: 0
    agentRadius: 0.5
    agentHeight: 2
    agentSlope: 45
    agentClimb: 0.4
    ledgeDropHeight: 0
    maxJumpAcrossDistance: 0
    minRegionArea: 2
    manualCellSize: 0
    cellSize: 0.16666667
    manualTileSize: 0
    tileSize: 256
    accuratePlacement: 0
    maxJobWorkers: 0
    preserveTilesOutsideBounds: 0
    debug:
      m_Flags: 0
  m_NavMeshData: {fileID: 0}
--- !u!1001 &128599769
PrefabInstance:
  m_ObjectHideFlags: 0
  serializedVersion: 2
  m_Modification:
    m_TransformParent: {fileID: 1088315849}
    m_Modifications:
    - target: {fileID: 457200, guid: 87009d6220cf83e4d83a95436b7baadf, type: 3}
      propertyPath: m_RootOrder
      value: 5
      objectReference: {fileID: 0}
    - target: {fileID: 457200, guid: 87009d6220cf83e4d83a95436b7baadf, type: 3}
      propertyPath: m_LocalPosition.x
      value: 0.17331286
      objectReference: {fileID: 0}
    - target: {fileID: 457200, guid: 87009d6220cf83e4d83a95436b7baadf, type: 3}
      propertyPath: m_LocalPosition.y
      value: 1.46
      objectReference: {fileID: 0}
    - target: {fileID: 457200, guid: 87009d6220cf83e4d83a95436b7baadf, type: 3}
      propertyPath: m_LocalPosition.z
      value: -6.34
      objectReference: {fileID: 0}
    - target: {fileID: 457200, guid: 87009d6220cf83e4d83a95436b7baadf, type: 3}
      propertyPath: m_LocalRotation.w
      value: 0.7071068
      objectReference: {fileID: 0}
    - target: {fileID: 457200, guid: 87009d6220cf83e4d83a95436b7baadf, type: 3}
      propertyPath: m_LocalRotation.x
      value: -0.7071068
      objectReference: {fileID: 0}
    - target: {fileID: 457200, guid: 87009d6220cf83e4d83a95436b7baadf, type: 3}
      propertyPath: m_LocalRotation.y
      value: 0
      objectReference: {fileID: 0}
    - target: {fileID: 457200, guid: 87009d6220cf83e4d83a95436b7baadf, type: 3}
      propertyPath: m_LocalRotation.z
      value: 0
      objectReference: {fileID: 0}
    m_RemovedComponents: []
  m_SourcePrefab: {fileID: 100100000, guid: 87009d6220cf83e4d83a95436b7baadf, type: 3}
--- !u!4 &128599770 stripped
Transform:
  m_CorrespondingSourceObject: {fileID: 457200, guid: 87009d6220cf83e4d83a95436b7baadf, type: 3}
  m_PrefabInstance: {fileID: 128599769}
  m_PrefabAsset: {fileID: 0}
--- !u!1001 &209589874
PrefabInstance:
  m_ObjectHideFlags: 0
  serializedVersion: 2
  m_Modification:
    m_TransformParent: {fileID: 0}
    m_Modifications:
    - target: {fileID: 457580, guid: 0fc2dd08d13acab428cf8f7ef9e9ef90, type: 3}
      propertyPath: m_RootOrder
      value: 5
      objectReference: {fileID: 0}
    - target: {fileID: 457580, guid: 0fc2dd08d13acab428cf8f7ef9e9ef90, type: 3}
      propertyPath: m_LocalPosition.x
      value: 0
      objectReference: {fileID: 0}
    - target: {fileID: 457580, guid: 0fc2dd08d13acab428cf8f7ef9e9ef90, type: 3}
      propertyPath: m_LocalPosition.y
      value: 0
      objectReference: {fileID: 0}
    - target: {fileID: 457580, guid: 0fc2dd08d13acab428cf8f7ef9e9ef90, type: 3}
      propertyPath: m_LocalPosition.z
      value: 0
      objectReference: {fileID: 0}
    - target: {fileID: 457580, guid: 0fc2dd08d13acab428cf8f7ef9e9ef90, type: 3}
      propertyPath: m_LocalRotation.w
      value: 1
      objectReference: {fileID: 0}
    - target: {fileID: 457580, guid: 0fc2dd08d13acab428cf8f7ef9e9ef90, type: 3}
      propertyPath: m_LocalRotation.x
      value: 0
      objectReference: {fileID: 0}
    - target: {fileID: 457580, guid: 0fc2dd08d13acab428cf8f7ef9e9ef90, type: 3}
      propertyPath: m_LocalRotation.y
      value: 0
      objectReference: {fileID: 0}
    - target: {fileID: 457580, guid: 0fc2dd08d13acab428cf8f7ef9e9ef90, type: 3}
      propertyPath: m_LocalRotation.z
      value: 0
      objectReference: {fileID: 0}
    m_RemovedComponents: []
  m_SourcePrefab: {fileID: 100100000, guid: 0fc2dd08d13acab428cf8f7ef9e9ef90, type: 3}
--- !u!1001 &325070588
PrefabInstance:
  m_ObjectHideFlags: 0
  serializedVersion: 2
  m_Modification:
    m_TransformParent: {fileID: 1088315849}
    m_Modifications:
    - target: {fileID: 482002, guid: 80c6b5d330112ef41800a729a58d22e7, type: 3}
      propertyPath: m_RootOrder
      value: 8
      objectReference: {fileID: 0}
    - target: {fileID: 482002, guid: 80c6b5d330112ef41800a729a58d22e7, type: 3}
      propertyPath: m_LocalPosition.x
      value: -6.2125707
      objectReference: {fileID: 0}
    - target: {fileID: 482002, guid: 80c6b5d330112ef41800a729a58d22e7, type: 3}
      propertyPath: m_LocalPosition.y
      value: 1.46
      objectReference: {fileID: 0}
    - target: {fileID: 482002, guid: 80c6b5d330112ef41800a729a58d22e7, type: 3}
      propertyPath: m_LocalPosition.z
      value: -6.21
      objectReference: {fileID: 0}
    - target: {fileID: 482002, guid: 80c6b5d330112ef41800a729a58d22e7, type: 3}
      propertyPath: m_LocalRotation.w
      value: 0.7071068
      objectReference: {fileID: 0}
    - target: {fileID: 482002, guid: 80c6b5d330112ef41800a729a58d22e7, type: 3}
      propertyPath: m_LocalRotation.x
      value: -0.7071068
      objectReference: {fileID: 0}
    - target: {fileID: 482002, guid: 80c6b5d330112ef41800a729a58d22e7, type: 3}
      propertyPath: m_LocalRotation.y
      value: 0
      objectReference: {fileID: 0}
    - target: {fileID: 482002, guid: 80c6b5d330112ef41800a729a58d22e7, type: 3}
      propertyPath: m_LocalRotation.z
      value: 0
      objectReference: {fileID: 0}
    m_RemovedComponents: []
  m_SourcePrefab: {fileID: 100100000, guid: 80c6b5d330112ef41800a729a58d22e7, type: 3}
--- !u!4 &325070589 stripped
Transform:
  m_CorrespondingSourceObject: {fileID: 482002, guid: 80c6b5d330112ef41800a729a58d22e7, type: 3}
  m_PrefabInstance: {fileID: 325070588}
  m_PrefabAsset: {fileID: 0}
--- !u!1001 &355438366
PrefabInstance:
  m_ObjectHideFlags: 0
  serializedVersion: 2
  m_Modification:
    m_TransformParent: {fileID: 1088315849}
    m_Modifications:
    - target: {fileID: 486650, guid: 0fb0846ec7b795e4586da62f99d560a5, type: 3}
      propertyPath: m_RootOrder
      value: 4
      objectReference: {fileID: 0}
    - target: {fileID: 486650, guid: 0fb0846ec7b795e4586da62f99d560a5, type: 3}
      propertyPath: m_LocalPosition.x
      value: 6.459038
      objectReference: {fileID: 0}
    - target: {fileID: 486650, guid: 0fb0846ec7b795e4586da62f99d560a5, type: 3}
      propertyPath: m_LocalPosition.y
      value: 1.46
      objectReference: {fileID: 0}
    - target: {fileID: 486650, guid: 0fb0846ec7b795e4586da62f99d560a5, type: 3}
      propertyPath: m_LocalPosition.z
      value: 6.23
      objectReference: {fileID: 0}
    - target: {fileID: 486650, guid: 0fb0846ec7b795e4586da62f99d560a5, type: 3}
      propertyPath: m_LocalRotation.w
      value: 0.7071068
      objectReference: {fileID: 0}
    - target: {fileID: 486650, guid: 0fb0846ec7b795e4586da62f99d560a5, type: 3}
      propertyPath: m_LocalRotation.x
      value: -0.7071068
      objectReference: {fileID: 0}
    - target: {fileID: 486650, guid: 0fb0846ec7b795e4586da62f99d560a5, type: 3}
      propertyPath: m_LocalRotation.y
      value: 0
      objectReference: {fileID: 0}
    - target: {fileID: 486650, guid: 0fb0846ec7b795e4586da62f99d560a5, type: 3}
      propertyPath: m_LocalRotation.z
      value: 0
      objectReference: {fileID: 0}
    - target: {fileID: 486650, guid: 0fb0846ec7b795e4586da62f99d560a5, type: 3}
      propertyPath: m_LocalEulerAnglesHint.x
      value: -90
      objectReference: {fileID: 0}
    m_RemovedComponents: []
  m_SourcePrefab: {fileID: 100100000, guid: 0fb0846ec7b795e4586da62f99d560a5, type: 3}
--- !u!4 &355438367 stripped
Transform:
  m_CorrespondingSourceObject: {fileID: 486650, guid: 0fb0846ec7b795e4586da62f99d560a5, type: 3}
  m_PrefabInstance: {fileID: 355438366}
  m_PrefabAsset: {fileID: 0}
--- !u!1001 &552805057
PrefabInstance:
  m_ObjectHideFlags: 0
  serializedVersion: 2
  m_Modification:
    m_TransformParent: {fileID: 1088315849}
    m_Modifications:
    - target: {fileID: 417248, guid: 00dac97cdd613fe49a4eb911783ae686, type: 3}
      propertyPath: m_RootOrder
      value: 9
      objectReference: {fileID: 0}
    - target: {fileID: 417248, guid: 00dac97cdd613fe49a4eb911783ae686, type: 3}
      propertyPath: m_LocalPosition.x
      value: -6.192115
      objectReference: {fileID: 0}
    - target: {fileID: 417248, guid: 00dac97cdd613fe49a4eb911783ae686, type: 3}
      propertyPath: m_LocalPosition.y
      value: 1.46
      objectReference: {fileID: 0}
    - target: {fileID: 417248, guid: 00dac97cdd613fe49a4eb911783ae686, type: 3}
      propertyPath: m_LocalPosition.z
      value: -3.08
      objectReference: {fileID: 0}
    - target: {fileID: 417248, guid: 00dac97cdd613fe49a4eb911783ae686, type: 3}
      propertyPath: m_LocalRotation.w
      value: 0.7071068
      objectReference: {fileID: 0}
    - target: {fileID: 417248, guid: 00dac97cdd613fe49a4eb911783ae686, type: 3}
      propertyPath: m_LocalRotation.x
      value: -0.7071068
      objectReference: {fileID: 0}
    - target: {fileID: 417248, guid: 00dac97cdd613fe49a4eb911783ae686, type: 3}
      propertyPath: m_LocalRotation.y
      value: 0
      objectReference: {fileID: 0}
    - target: {fileID: 417248, guid: 00dac97cdd613fe49a4eb911783ae686, type: 3}
      propertyPath: m_LocalRotation.z
      value: 0
      objectReference: {fileID: 0}
    m_RemovedComponents: []
  m_SourcePrefab: {fileID: 100100000, guid: 00dac97cdd613fe49a4eb911783ae686, type: 3}
--- !u!4 &552805058 stripped
Transform:
  m_CorrespondingSourceObject: {fileID: 417248, guid: 00dac97cdd613fe49a4eb911783ae686, type: 3}
  m_PrefabInstance: {fileID: 552805057}
  m_PrefabAsset: {fileID: 0}
--- !u!1001 &898269307
PrefabInstance:
  m_ObjectHideFlags: 0
  serializedVersion: 2
  m_Modification:
    m_TransformParent: {fileID: 1088315849}
    m_Modifications:
    - target: {fileID: 436318, guid: 460ec3e3d006c254b831a1a92d30ed3e, type: 3}
      propertyPath: m_RootOrder
      value: 1
      objectReference: {fileID: 0}
    - target: {fileID: 436318, guid: 460ec3e3d006c254b831a1a92d30ed3e, type: 3}
      propertyPath: m_LocalPosition.x
      value: 6.4244514
      objectReference: {fileID: 0}
    - target: {fileID: 436318, guid: 460ec3e3d006c254b831a1a92d30ed3e, type: 3}
      propertyPath: m_LocalPosition.y
      value: 1.46
      objectReference: {fileID: 0}
    - target: {fileID: 436318, guid: 460ec3e3d006c254b831a1a92d30ed3e, type: 3}
      propertyPath: m_LocalPosition.z
      value: -2.36
      objectReference: {fileID: 0}
    - target: {fileID: 436318, guid: 460ec3e3d006c254b831a1a92d30ed3e, type: 3}
      propertyPath: m_LocalRotation.w
      value: 0.7071068
      objectReference: {fileID: 0}
    - target: {fileID: 436318, guid: 460ec3e3d006c254b831a1a92d30ed3e, type: 3}
      propertyPath: m_LocalRotation.x
      value: -0.7071068
      objectReference: {fileID: 0}
    - target: {fileID: 436318, guid: 460ec3e3d006c254b831a1a92d30ed3e, type: 3}
      propertyPath: m_LocalRotation.y
      value: 0
      objectReference: {fileID: 0}
    - target: {fileID: 436318, guid: 460ec3e3d006c254b831a1a92d30ed3e, type: 3}
      propertyPath: m_LocalRotation.z
      value: 0
      objectReference: {fileID: 0}
    - target: {fileID: 436318, guid: 460ec3e3d006c254b831a1a92d30ed3e, type: 3}
      propertyPath: m_LocalEulerAnglesHint.x
      value: -90
      objectReference: {fileID: 0}
    m_RemovedComponents: []
  m_SourcePrefab: {fileID: 100100000, guid: 460ec3e3d006c254b831a1a92d30ed3e, type: 3}
--- !u!4 &898269308 stripped
Transform:
  m_CorrespondingSourceObject: {fileID: 436318, guid: 460ec3e3d006c254b831a1a92d30ed3e, type: 3}
  m_PrefabInstance: {fileID: 898269307}
  m_PrefabAsset: {fileID: 0}
--- !u!1001 &940061474
PrefabInstance:
  m_ObjectHideFlags: 0
  serializedVersion: 2
  m_Modification:
    m_TransformParent: {fileID: 0}
    m_Modifications:
    - target: {fileID: 22431090, guid: 696a93e0e2eb398428d7b5be3f360be6, type: 3}
      propertyPath: m_Pivot.x
      value: 0
      objectReference: {fileID: 0}
    - target: {fileID: 22431090, guid: 696a93e0e2eb398428d7b5be3f360be6, type: 3}
      propertyPath: m_Pivot.y
      value: 0
      objectReference: {fileID: 0}
    - target: {fileID: 22431090, guid: 696a93e0e2eb398428d7b5be3f360be6, type: 3}
      propertyPath: m_RootOrder
      value: 5
      objectReference: {fileID: 0}
    - target: {fileID: 22431090, guid: 696a93e0e2eb398428d7b5be3f360be6, type: 3}
      propertyPath: m_AnchorMax.x
      value: 0
      objectReference: {fileID: 0}
    - target: {fileID: 22431090, guid: 696a93e0e2eb398428d7b5be3f360be6, type: 3}
      propertyPath: m_AnchorMax.y
      value: 0
      objectReference: {fileID: 0}
    - target: {fileID: 22431090, guid: 696a93e0e2eb398428d7b5be3f360be6, type: 3}
      propertyPath: m_AnchorMin.x
      value: 0
      objectReference: {fileID: 0}
    - target: {fileID: 22431090, guid: 696a93e0e2eb398428d7b5be3f360be6, type: 3}
      propertyPath: m_AnchorMin.y
      value: 0
      objectReference: {fileID: 0}
    - target: {fileID: 22431090, guid: 696a93e0e2eb398428d7b5be3f360be6, type: 3}
      propertyPath: m_SizeDelta.x
      value: 0
      objectReference: {fileID: 0}
    - target: {fileID: 22431090, guid: 696a93e0e2eb398428d7b5be3f360be6, type: 3}
      propertyPath: m_SizeDelta.y
      value: 0
      objectReference: {fileID: 0}
    - target: {fileID: 22431090, guid: 696a93e0e2eb398428d7b5be3f360be6, type: 3}
      propertyPath: m_LocalPosition.x
      value: 0
      objectReference: {fileID: 0}
    - target: {fileID: 22431090, guid: 696a93e0e2eb398428d7b5be3f360be6, type: 3}
      propertyPath: m_LocalPosition.y
      value: 0
      objectReference: {fileID: 0}
    - target: {fileID: 22431090, guid: 696a93e0e2eb398428d7b5be3f360be6, type: 3}
      propertyPath: m_LocalPosition.z
      value: 0
      objectReference: {fileID: 0}
    - target: {fileID: 22431090, guid: 696a93e0e2eb398428d7b5be3f360be6, type: 3}
      propertyPath: m_LocalRotation.w
      value: 1
      objectReference: {fileID: 0}
    - target: {fileID: 22431090, guid: 696a93e0e2eb398428d7b5be3f360be6, type: 3}
      propertyPath: m_LocalRotation.x
      value: 0
      objectReference: {fileID: 0}
    - target: {fileID: 22431090, guid: 696a93e0e2eb398428d7b5be3f360be6, type: 3}
      propertyPath: m_LocalRotation.y
      value: 0
      objectReference: {fileID: 0}
    - target: {fileID: 22431090, guid: 696a93e0e2eb398428d7b5be3f360be6, type: 3}
      propertyPath: m_LocalRotation.z
      value: 0
      objectReference: {fileID: 0}
    - target: {fileID: 22431090, guid: 696a93e0e2eb398428d7b5be3f360be6, type: 3}
      propertyPath: m_AnchoredPosition.x
      value: 0
      objectReference: {fileID: 0}
    - target: {fileID: 22431090, guid: 696a93e0e2eb398428d7b5be3f360be6, type: 3}
      propertyPath: m_AnchoredPosition.y
      value: 0
      objectReference: {fileID: 0}
    m_RemovedComponents: []
  m_SourcePrefab: {fileID: 100100000, guid: 696a93e0e2eb398428d7b5be3f360be6, type: 3}
--- !u!1001 &1047961340
PrefabInstance:
  m_ObjectHideFlags: 0
  serializedVersion: 2
  m_Modification:
    m_TransformParent: {fileID: 1088315849}
    m_Modifications:
    - target: {fileID: 404966, guid: 0a27a995f3451f741b32f5f6bf27155b, type: 3}
      propertyPath: m_RootOrder
      value: 6
      objectReference: {fileID: 0}
    - target: {fileID: 404966, guid: 0a27a995f3451f741b32f5f6bf27155b, type: 3}
      propertyPath: m_LocalPosition.x
      value: 0.2981961
      objectReference: {fileID: 0}
    - target: {fileID: 404966, guid: 0a27a995f3451f741b32f5f6bf27155b, type: 3}
      propertyPath: m_LocalPosition.y
      value: 1.46
      objectReference: {fileID: 0}
    - target: {fileID: 404966, guid: 0a27a995f3451f741b32f5f6bf27155b, type: 3}
      propertyPath: m_LocalPosition.z
      value: 0.03
      objectReference: {fileID: 0}
    - target: {fileID: 404966, guid: 0a27a995f3451f741b32f5f6bf27155b, type: 3}
      propertyPath: m_LocalRotation.w
      value: 0.7071068
      objectReference: {fileID: 0}
    - target: {fileID: 404966, guid: 0a27a995f3451f741b32f5f6bf27155b, type: 3}
      propertyPath: m_LocalRotation.x
      value: -0.7071068
      objectReference: {fileID: 0}
    - target: {fileID: 404966, guid: 0a27a995f3451f741b32f5f6bf27155b, type: 3}
      propertyPath: m_LocalRotation.y
      value: 0
      objectReference: {fileID: 0}
    - target: {fileID: 404966, guid: 0a27a995f3451f741b32f5f6bf27155b, type: 3}
      propertyPath: m_LocalRotation.z
      value: 0
      objectReference: {fileID: 0}
    m_RemovedComponents: []
  m_SourcePrefab: {fileID: 100100000, guid: 0a27a995f3451f741b32f5f6bf27155b, type: 3}
--- !u!4 &1047961341 stripped
Transform:
  m_CorrespondingSourceObject: {fileID: 404966, guid: 0a27a995f3451f741b32f5f6bf27155b, type: 3}
  m_PrefabInstance: {fileID: 1047961340}
  m_PrefabAsset: {fileID: 0}
--- !u!1 &1088315848
GameObject:
  m_ObjectHideFlags: 0
  m_CorrespondingSourceObject: {fileID: 0}
  m_PrefabInstance: {fileID: 0}
  m_PrefabAsset: {fileID: 0}
  serializedVersion: 6
  m_Component:
  - component: {fileID: 1088315849}
  m_Layer: 0
  m_Name: Effects
  m_TagString: Untagged
  m_Icon: {fileID: 0}
  m_NavMeshLayer: 0
  m_StaticEditorFlags: 0
  m_IsActive: 1
--- !u!4 &1088315849
Transform:
  m_ObjectHideFlags: 0
  m_CorrespondingSourceObject: {fileID: 0}
  m_PrefabInstance: {fileID: 0}
  m_PrefabAsset: {fileID: 0}
  m_GameObject: {fileID: 1088315848}
  m_LocalRotation: {x: 0, y: 0, z: 0, w: 1}
  m_LocalPosition: {x: 0, y: 0, z: 0}
  m_LocalScale: {x: 1, y: 1, z: 1}
  m_Children:
  - {fileID: 1555349164}
  - {fileID: 898269308}
  - {fileID: 1623432757}
  - {fileID: 1783131392}
  - {fileID: 355438367}
  - {fileID: 128599770}
  - {fileID: 1047961341}
  - {fileID: 1469387198}
  - {fileID: 325070589}
  - {fileID: 552805058}
  - {fileID: 1679037618}
  m_Father: {fileID: 0}
  m_RootOrder: 3
  m_LocalEulerAnglesHint: {x: 0, y: 0, z: 0}
--- !u!1001 &1469387197
PrefabInstance:
  m_ObjectHideFlags: 0
  serializedVersion: 2
  m_Modification:
    m_TransformParent: {fileID: 1088315849}
    m_Modifications:
    - target: {fileID: 488062, guid: 661f21b6e6d0a6543a4a1a9122f017b0, type: 3}
      propertyPath: m_RootOrder
      value: 7
      objectReference: {fileID: 0}
    - target: {fileID: 488062, guid: 661f21b6e6d0a6543a4a1a9122f017b0, type: 3}
      propertyPath: m_LocalPosition.x
      value: 0.19212742
      objectReference: {fileID: 0}
    - target: {fileID: 488062, guid: 661f21b6e6d0a6543a4a1a9122f017b0, type: 3}
      propertyPath: m_LocalPosition.y
      value: 1.46
      objectReference: {fileID: 0}
    - target: {fileID: 488062, guid: 661f21b6e6d0a6543a4a1a9122f017b0, type: 3}
      propertyPath: m_LocalPosition.z
      value: 6.44
      objectReference: {fileID: 0}
    - target: {fileID: 488062, guid: 661f21b6e6d0a6543a4a1a9122f017b0, type: 3}
      propertyPath: m_LocalRotation.w
      value: 0.7071068
      objectReference: {fileID: 0}
    - target: {fileID: 488062, guid: 661f21b6e6d0a6543a4a1a9122f017b0, type: 3}
      propertyPath: m_LocalRotation.x
      value: -0.7071068
      objectReference: {fileID: 0}
    - target: {fileID: 488062, guid: 661f21b6e6d0a6543a4a1a9122f017b0, type: 3}
      propertyPath: m_LocalRotation.y
      value: 0
      objectReference: {fileID: 0}
    - target: {fileID: 488062, guid: 661f21b6e6d0a6543a4a1a9122f017b0, type: 3}
      propertyPath: m_LocalRotation.z
      value: 0
      objectReference: {fileID: 0}
    m_RemovedComponents: []
  m_SourcePrefab: {fileID: 100100000, guid: 661f21b6e6d0a6543a4a1a9122f017b0, type: 3}
--- !u!4 &1469387198 stripped
Transform:
  m_CorrespondingSourceObject: {fileID: 488062, guid: 661f21b6e6d0a6543a4a1a9122f017b0, type: 3}
  m_PrefabInstance: {fileID: 1469387197}
  m_PrefabAsset: {fileID: 0}
--- !u!1 &1469812817
GameObject:
  m_ObjectHideFlags: 0
  m_CorrespondingSourceObject: {fileID: 0}
  m_PrefabInstance: {fileID: 0}
  m_PrefabAsset: {fileID: 0}
  serializedVersion: 6
  m_Component:
  - component: {fileID: 1469812821}
  - component: {fileID: 1469812820}
  - component: {fileID: 1469812819}
  - component: {fileID: 1469812818}
  m_Layer: 0
  m_Name: Quad
  m_TagString: Untagged
  m_Icon: {fileID: 0}
  m_NavMeshLayer: 0
  m_StaticEditorFlags: 0
  m_IsActive: 1
--- !u!23 &1469812818
MeshRenderer:
  m_ObjectHideFlags: 0
  m_CorrespondingSourceObject: {fileID: 0}
  m_PrefabInstance: {fileID: 0}
  m_PrefabAsset: {fileID: 0}
  m_GameObject: {fileID: 1469812817}
  m_Enabled: 1
  m_CastShadows: 1
  m_ReceiveShadows: 1
  m_DynamicOccludee: 1
  m_MotionVectors: 1
  m_LightProbeUsage: 1
  m_ReflectionProbeUsage: 1
  m_RayTracingMode: 2
  m_RayTraceProcedural: 0
  m_RenderingLayerMask: 1
  m_RendererPriority: 0
  m_Materials:
  - {fileID: 2100000, guid: 5f96383263013ab439e00cec0f0d2255, type: 2}
  m_StaticBatchInfo:
    firstSubMesh: 0
    subMeshCount: 0
  m_StaticBatchRoot: {fileID: 0}
  m_ProbeAnchor: {fileID: 0}
  m_LightProbeVolumeOverride: {fileID: 0}
  m_ScaleInLightmap: 1
  m_ReceiveGI: 1
  m_PreserveUVs: 1
  m_IgnoreNormalsForChartDetection: 0
  m_ImportantGI: 0
  m_StitchLightmapSeams: 1
  m_SelectedEditorRenderState: 3
  m_MinimumChartSize: 4
  m_AutoUVMaxDistance: 0.5
  m_AutoUVMaxAngle: 89
  m_LightmapParameters: {fileID: 0}
  m_SortingLayerID: 0
  m_SortingLayer: 0
  m_SortingOrder: 0
  m_AdditionalVertexStreams: {fileID: 0}
--- !u!64 &1469812819
MeshCollider:
  m_ObjectHideFlags: 0
  m_CorrespondingSourceObject: {fileID: 0}
  m_PrefabInstance: {fileID: 0}
  m_PrefabAsset: {fileID: 0}
  m_GameObject: {fileID: 1469812817}
  m_Material: {fileID: 0}
  m_IsTrigger: 0
  m_Enabled: 1
  serializedVersion: 4
  m_Convex: 0
  m_CookingOptions: 30
  m_Mesh: {fileID: 10210, guid: 0000000000000000e000000000000000, type: 0}
--- !u!33 &1469812820
MeshFilter:
  m_ObjectHideFlags: 0
  m_CorrespondingSourceObject: {fileID: 0}
  m_PrefabInstance: {fileID: 0}
  m_PrefabAsset: {fileID: 0}
  m_GameObject: {fileID: 1469812817}
  m_Mesh: {fileID: 10210, guid: 0000000000000000e000000000000000, type: 0}
--- !u!4 &1469812821
Transform:
  m_ObjectHideFlags: 0
  m_CorrespondingSourceObject: {fileID: 0}
  m_PrefabInstance: {fileID: 0}
  m_PrefabAsset: {fileID: 0}
  m_GameObject: {fileID: 1469812817}
  m_LocalRotation: {x: 0.707107, y: 0, z: 0, w: 0.70710665}
  m_LocalPosition: {x: 0, y: 0, z: 0}
  m_LocalScale: {x: 25, y: 25, z: 25}
  m_Children: []
  m_Father: {fileID: 0}
  m_RootOrder: 1
  m_LocalEulerAnglesHint: {x: 0, y: 0, z: 0}
--- !u!1 &1532699372
GameObject:
  m_ObjectHideFlags: 0
  m_CorrespondingSourceObject: {fileID: 132264, guid: 3fb4b74fb453ece4e85885b0787500f7, type: 2}
  m_PrefabInstance: {fileID: 0}
  m_PrefabAsset: {fileID: 0}
  serializedVersion: 6
  m_Component:
  - component: {fileID: 1532699374}
  - component: {fileID: 1532699373}
  m_Layer: 0
  m_Name: Point light
  m_TagString: Untagged
  m_Icon: {fileID: 0}
  m_NavMeshLayer: 0
  m_StaticEditorFlags: 4294967295
  m_IsActive: 1
--- !u!108 &1532699373
Light:
  m_ObjectHideFlags: 0
  m_CorrespondingSourceObject: {fileID: 10855476, guid: 3fb4b74fb453ece4e85885b0787500f7, type: 2}
  m_PrefabInstance: {fileID: 0}
  m_PrefabAsset: {fileID: 0}
  m_GameObject: {fileID: 1532699372}
  m_Enabled: 1
  serializedVersion: 10
  m_Type: 2
  m_Shape: 0
  m_Color: {r: 0.1694961, g: 0.43583688, b: 0.6985294, a: 1}
  m_Intensity: 8
  m_Range: 35
  m_SpotAngle: 30
  m_InnerSpotAngle: 21.802082
  m_CookieSize: 10
  m_Shadows:
    m_Type: 0
    m_Resolution: -1
    m_CustomResolution: -1
    m_Strength: 1
    m_Bias: 0.05
    m_NormalBias: 0.4
    m_NearPlane: 0.2
    m_CullingMatrixOverride:
      e00: 1
      e01: 0
      e02: 0
      e03: 0
      e10: 0
      e11: 1
      e12: 0
      e13: 0
      e20: 0
      e21: 0
      e22: 1
      e23: 0
      e30: 0
      e31: 0
      e32: 0
      e33: 1
    m_UseCullingMatrixOverride: 0
  m_Cookie: {fileID: 0}
  m_DrawHalo: 0
  m_Flare: {fileID: 0}
  m_RenderMode: 0
  m_CullingMask:
    serializedVersion: 2
    m_Bits: 4294967295
  m_RenderingLayerMask: 1
  m_Lightmapping: 4
  m_LightShadowCasterMode: 0
  m_AreaSize: {x: 1, y: 1}
  m_BounceIntensity: 1
  m_ColorTemperature: 6570
  m_UseColorTemperature: 0
  m_BoundingSphereOverride: {x: 0, y: 0, z: 0, w: 0}
  m_UseBoundingSphereOverride: 0
  m_UseViewFrustumForShadowCasterCull: 1
  m_ShadowRadius: 0
  m_ShadowAngle: 0
--- !u!4 &1532699374
Transform:
  m_ObjectHideFlags: 0
  m_CorrespondingSourceObject: {fileID: 461344, guid: 3fb4b74fb453ece4e85885b0787500f7, type: 2}
  m_PrefabInstance: {fileID: 0}
  m_PrefabAsset: {fileID: 0}
  m_GameObject: {fileID: 1532699372}
  m_LocalRotation: {x: 0, y: 0, z: 0, w: 1}
  m_LocalPosition: {x: 0, y: 6, z: 0}
  m_LocalScale: {x: 1, y: 1, z: 1}
  m_Children: []
  m_Father: {fileID: 0}
  m_RootOrder: 2
  m_LocalEulerAnglesHint: {x: 0, y: 0, z: 0}
--- !u!1001 &1555349163
PrefabInstance:
  m_ObjectHideFlags: 0
  serializedVersion: 2
  m_Modification:
    m_TransformParent: {fileID: 1088315849}
    m_Modifications:
    - target: {fileID: 462634, guid: db1ef0db102f5864986443fb43fd0f64, type: 3}
      propertyPath: m_RootOrder
      value: 0
      objectReference: {fileID: 0}
    - target: {fileID: 462634, guid: db1ef0db102f5864986443fb43fd0f64, type: 3}
      propertyPath: m_LocalPosition.x
      value: -6.218549
      objectReference: {fileID: 0}
    - target: {fileID: 462634, guid: db1ef0db102f5864986443fb43fd0f64, type: 3}
      propertyPath: m_LocalPosition.y
      value: 1.46
      objectReference: {fileID: 0}
    - target: {fileID: 462634, guid: db1ef0db102f5864986443fb43fd0f64, type: 3}
      propertyPath: m_LocalPosition.z
      value: 6.29
      objectReference: {fileID: 0}
    - target: {fileID: 462634, guid: db1ef0db102f5864986443fb43fd0f64, type: 3}
      propertyPath: m_LocalRotation.w
      value: 0.7071068
      objectReference: {fileID: 0}
    - target: {fileID: 462634, guid: db1ef0db102f5864986443fb43fd0f64, type: 3}
      propertyPath: m_LocalRotation.x
      value: -0.7071068
      objectReference: {fileID: 0}
    - target: {fileID: 462634, guid: db1ef0db102f5864986443fb43fd0f64, type: 3}
      propertyPath: m_LocalRotation.y
      value: 0
      objectReference: {fileID: 0}
    - target: {fileID: 462634, guid: db1ef0db102f5864986443fb43fd0f64, type: 3}
      propertyPath: m_LocalRotation.z
      value: 0
      objectReference: {fileID: 0}
    m_RemovedComponents: []
  m_SourcePrefab: {fileID: 100100000, guid: db1ef0db102f5864986443fb43fd0f64, type: 3}
--- !u!4 &1555349164 stripped
Transform:
  m_CorrespondingSourceObject: {fileID: 462634, guid: db1ef0db102f5864986443fb43fd0f64, type: 3}
  m_PrefabInstance: {fileID: 1555349163}
  m_PrefabAsset: {fileID: 0}
--- !u!1001 &1623432756
PrefabInstance:
  m_ObjectHideFlags: 0
  serializedVersion: 2
  m_Modification:
    m_TransformParent: {fileID: 1088315849}
    m_Modifications:
    - target: {fileID: 460112, guid: c5db43b1e2c605d42a53be0160e8cc8a, type: 3}
      propertyPath: m_RootOrder
      value: 2
      objectReference: {fileID: 0}
    - target: {fileID: 460112, guid: c5db43b1e2c605d42a53be0160e8cc8a, type: 3}
      propertyPath: m_LocalPosition.x
      value: 6.44337
      objectReference: {fileID: 0}
    - target: {fileID: 460112, guid: c5db43b1e2c605d42a53be0160e8cc8a, type: 3}
      propertyPath: m_LocalPosition.y
      value: 1.46
      objectReference: {fileID: 0}
    - target: {fileID: 460112, guid: c5db43b1e2c605d42a53be0160e8cc8a, type: 3}
      propertyPath: m_LocalPosition.z
      value: 1.86
      objectReference: {fileID: 0}
    - target: {fileID: 460112, guid: c5db43b1e2c605d42a53be0160e8cc8a, type: 3}
      propertyPath: m_LocalRotation.w
      value: 0.7071068
      objectReference: {fileID: 0}
    - target: {fileID: 460112, guid: c5db43b1e2c605d42a53be0160e8cc8a, type: 3}
      propertyPath: m_LocalRotation.x
      value: -0.7071068
      objectReference: {fileID: 0}
    - target: {fileID: 460112, guid: c5db43b1e2c605d42a53be0160e8cc8a, type: 3}
      propertyPath: m_LocalRotation.y
      value: 0
      objectReference: {fileID: 0}
    - target: {fileID: 460112, guid: c5db43b1e2c605d42a53be0160e8cc8a, type: 3}
      propertyPath: m_LocalRotation.z
      value: 0
      objectReference: {fileID: 0}
    - target: {fileID: 460112, guid: c5db43b1e2c605d42a53be0160e8cc8a, type: 3}
      propertyPath: m_LocalEulerAnglesHint.x
      value: -90
      objectReference: {fileID: 0}
    m_RemovedComponents: []
  m_SourcePrefab: {fileID: 100100000, guid: c5db43b1e2c605d42a53be0160e8cc8a, type: 3}
--- !u!4 &1623432757 stripped
Transform:
  m_CorrespondingSourceObject: {fileID: 460112, guid: c5db43b1e2c605d42a53be0160e8cc8a, type: 3}
  m_PrefabInstance: {fileID: 1623432756}
  m_PrefabAsset: {fileID: 0}
--- !u!1001 &1679037617
PrefabInstance:
  m_ObjectHideFlags: 0
  serializedVersion: 2
  m_Modification:
    m_TransformParent: {fileID: 1088315849}
    m_Modifications:
    - target: {fileID: 458516, guid: 0e5ef80beee6f234b9b27568218dbaf1, type: 3}
      propertyPath: m_RootOrder
      value: 10
      objectReference: {fileID: 0}
    - target: {fileID: 458516, guid: 0e5ef80beee6f234b9b27568218dbaf1, type: 3}
      propertyPath: m_LocalPosition.x
      value: -6.2423234
      objectReference: {fileID: 0}
    - target: {fileID: 458516, guid: 0e5ef80beee6f234b9b27568218dbaf1, type: 3}
      propertyPath: m_LocalPosition.y
      value: 1.46
      objectReference: {fileID: 0}
    - target: {fileID: 458516, guid: 0e5ef80beee6f234b9b27568218dbaf1, type: 3}
      propertyPath: m_LocalPosition.z
      value: 3.15
      objectReference: {fileID: 0}
    - target: {fileID: 458516, guid: 0e5ef80beee6f234b9b27568218dbaf1, type: 3}
      propertyPath: m_LocalRotation.w
      value: 0.7071068
      objectReference: {fileID: 0}
    - target: {fileID: 458516, guid: 0e5ef80beee6f234b9b27568218dbaf1, type: 3}
      propertyPath: m_LocalRotation.x
      value: -0.7071068
      objectReference: {fileID: 0}
    - target: {fileID: 458516, guid: 0e5ef80beee6f234b9b27568218dbaf1, type: 3}
      propertyPath: m_LocalRotation.y
      value: 0
      objectReference: {fileID: 0}
    - target: {fileID: 458516, guid: 0e5ef80beee6f234b9b27568218dbaf1, type: 3}
      propertyPath: m_LocalRotation.z
      value: 0
      objectReference: {fileID: 0}
    m_RemovedComponents: []
  m_SourcePrefab: {fileID: 100100000, guid: 0e5ef80beee6f234b9b27568218dbaf1, type: 3}
--- !u!4 &1679037618 stripped
Transform:
  m_CorrespondingSourceObject: {fileID: 458516, guid: 0e5ef80beee6f234b9b27568218dbaf1, type: 3}
  m_PrefabInstance: {fileID: 1679037617}
  m_PrefabAsset: {fileID: 0}
--- !u!1001 &1783131391
PrefabInstance:
  m_ObjectHideFlags: 0
  serializedVersion: 2
  m_Modification:
    m_TransformParent: {fileID: 1088315849}
    m_Modifications:
    - target: {fileID: 434584, guid: 0bb1d6b9d39bcbf4785d00557d53e9e3, type: 3}
      propertyPath: m_RootOrder
      value: 3
      objectReference: {fileID: 0}
    - target: {fileID: 434584, guid: 0bb1d6b9d39bcbf4785d00557d53e9e3, type: 3}
      propertyPath: m_LocalPosition.x
      value: 6.4730124
      objectReference: {fileID: 0}
    - target: {fileID: 434584, guid: 0bb1d6b9d39bcbf4785d00557d53e9e3, type: 3}
      propertyPath: m_LocalPosition.y
      value: 1.46
      objectReference: {fileID: 0}
    - target: {fileID: 434584, guid: 0bb1d6b9d39bcbf4785d00557d53e9e3, type: 3}
      propertyPath: m_LocalPosition.z
      value: -6.31
      objectReference: {fileID: 0}
    - target: {fileID: 434584, guid: 0bb1d6b9d39bcbf4785d00557d53e9e3, type: 3}
      propertyPath: m_LocalRotation.w
      value: 0.7071068
      objectReference: {fileID: 0}
    - target: {fileID: 434584, guid: 0bb1d6b9d39bcbf4785d00557d53e9e3, type: 3}
      propertyPath: m_LocalRotation.x
      value: -0.7071068
      objectReference: {fileID: 0}
    - target: {fileID: 434584, guid: 0bb1d6b9d39bcbf4785d00557d53e9e3, type: 3}
      propertyPath: m_LocalRotation.y
      value: 0
      objectReference: {fileID: 0}
    - target: {fileID: 434584, guid: 0bb1d6b9d39bcbf4785d00557d53e9e3, type: 3}
      propertyPath: m_LocalRotation.z
      value: 0
      objectReference: {fileID: 0}
    - target: {fileID: 434584, guid: 0bb1d6b9d39bcbf4785d00557d53e9e3, type: 3}
      propertyPath: m_LocalEulerAnglesHint.x
      value: -90
      objectReference: {fileID: 0}
    m_RemovedComponents: []
  m_SourcePrefab: {fileID: 100100000, guid: 0bb1d6b9d39bcbf4785d00557d53e9e3, type: 3}
--- !u!4 &1783131392 stripped
Transform:
  m_CorrespondingSourceObject: {fileID: 434584, guid: 0bb1d6b9d39bcbf4785d00557d53e9e3, type: 3}
  m_PrefabInstance: {fileID: 1783131391}
  m_PrefabAsset: {fileID: 0}
--- !u!1 &2031238729
GameObject:
  m_ObjectHideFlags: 0
  m_CorrespondingSourceObject: {fileID: 0}
  m_PrefabInstance: {fileID: 0}
  m_PrefabAsset: {fileID: 0}
  serializedVersion: 6
  m_Component:
  - component: {fileID: 2031238731}
  - component: {fileID: 2031238730}
  m_Layer: 0
  m_Name: Directional Light
  m_TagString: Untagged
  m_Icon: {fileID: 0}
  m_NavMeshLayer: 0
  m_StaticEditorFlags: 4294967295
  m_IsActive: 1
--- !u!108 &2031238730
Light:
  m_ObjectHideFlags: 0
  m_CorrespondingSourceObject: {fileID: 0}
  m_PrefabInstance: {fileID: 0}
  m_PrefabAsset: {fileID: 0}
  m_GameObject: {fileID: 2031238729}
  m_Enabled: 1
  serializedVersion: 10
  m_Type: 1
  m_Shape: 0
  m_Color: {r: 1, g: 0.95686275, b: 0.8392157, a: 1}
  m_Intensity: 0.2
  m_Range: 10
  m_SpotAngle: 30
  m_InnerSpotAngle: 21.802082
  m_CookieSize: 10
  m_Shadows:
    m_Type: 2
    m_Resolution: -1
    m_CustomResolution: -1
    m_Strength: 1
    m_Bias: 0.05
    m_NormalBias: 0.4
    m_NearPlane: 0.2
    m_CullingMatrixOverride:
      e00: 1
      e01: 0
      e02: 0
      e03: 0
      e10: 0
      e11: 1
      e12: 0
      e13: 0
      e20: 0
      e21: 0
      e22: 1
      e23: 0
      e30: 0
      e31: 0
      e32: 0
      e33: 1
    m_UseCullingMatrixOverride: 0
  m_Cookie: {fileID: 0}
  m_DrawHalo: 0
  m_Flare: {fileID: 0}
  m_RenderMode: 0
  m_CullingMask:
    serializedVersion: 2
    m_Bits: 4294967295
  m_RenderingLayerMask: 1
  m_Lightmapping: 2
  m_LightShadowCasterMode: 0
  m_AreaSize: {x: 1, y: 1}
  m_BounceIntensity: 1
  m_ColorTemperature: 6570
  m_UseColorTemperature: 0
  m_BoundingSphereOverride: {x: 0, y: 0, z: 0, w: 0}
  m_UseBoundingSphereOverride: 0
  m_UseViewFrustumForShadowCasterCull: 1
  m_ShadowRadius: 0
  m_ShadowAngle: 0
--- !u!4 &2031238731
Transform:
  m_ObjectHideFlags: 0
  m_CorrespondingSourceObject: {fileID: 0}
  m_PrefabInstance: {fileID: 0}
  m_PrefabAsset: {fileID: 0}
  m_GameObject: {fileID: 2031238729}
  m_LocalRotation: {x: 0.40821794, y: -0.23456973, z: 0.109381676, w: 0.87542605}
  m_LocalPosition: {x: -2.54, y: 8.98, z: 4.4}
  m_LocalScale: {x: 1, y: 1, z: 1}
  m_Children: []
  m_Father: {fileID: 0}
  m_RootOrder: 0
  m_LocalEulerAnglesHint: {x: 0, y: 0, z: 0}
