%YAML 1.1
%TAG !u! tag:unity3d.com,2011:
--- !u!114 &11400000
MonoBehaviour:
  m_ObjectHideFlags: 0
  m_CorrespondingSourceObject: {fileID: 0}
  m_PrefabInstance: {fileID: 0}
  m_PrefabAsset: {fileID: 0}
  m_GameObject: {fileID: 0}
  m_Enabled: 1
  m_EditorHideFlags: 0
  m_Script: {fileID: 11500000, guid: 33d219a83ae454bdc87692e8027ea3e1, type: 3}
  m_Name: 01 2
  m_EditorClassIdentifier: 
  Question: 15-3
  LeftAnswer: {fileID: 0}
  RightAnswer: {fileID: 0}
  side: 0
  LeftAnswerText: 12
  RightAnswerText: 10
