%YAML 1.1
%TAG !u! tag:unity3d.com,2011:
--- !u!114 &11400000
MonoBehaviour:
  m_ObjectHideFlags: 0
  m_CorrespondingSourceObject: {fileID: 0}
  m_PrefabInstance: {fileID: 0}
  m_PrefabAsset: {fileID: 0}
  m_GameObject: {fileID: 0}
  m_Enabled: 1
  m_EditorHideFlags: 0
  m_Script: {fileID: 11500000, guid: 33d219a83ae454bdc87692e8027ea3e1, type: 3}
  m_Name: 01_12
  m_EditorClassIdentifier: 
  Question: JAPAN?
  LeftAnswer: {fileID: 21300000, guid: 7c0f0763b557a49f7a4d18a08b7a26e5, type: 3}
  RightAnswer: {fileID: 21300000, guid: 8cb3f1c48fdb44ad1b39b3585e21e559, type: 3}
  side: 0
